%YAML 1.1
%TAG !u! tag:unity3d.com,2011:
--- !u!74 &7400000
AnimationClip:
  m_ObjectHideFlags: 0
  m_CorrespondingSourceObject: {fileID: 0}
  m_PrefabInstance: {fileID: 0}
  m_PrefabAsset: {fileID: 0}
  m_Name: StoryNoise
  serializedVersion: 6
  m_Legacy: 0
  m_Compressed: 0
  m_UseHighQualityCurve: 1
  m_RotationCurves: []
  m_CompressedRotationCurves: []
  m_EulerCurves: []
  m_PositionCurves: []
  m_ScaleCurves: []
  m_FloatCurves: []
  m_PPtrCurves:
  - curve:
    - time: 0
      value: {fileID: 21300000, guid: a886bcbb65b0c8e439e9f3d1c4f750df, type: 3}
    - time: 0.016666668
      value: {fileID: 21300000, guid: 0f135d62c19880343be7cf983ead4f84, type: 3}
    - time: 0.033333335
      value: {fileID: 21300000, guid: 92ddf3bd0f59acc40b66a1210ff81863, type: 3}
    - time: 0.05
      value: {fileID: 21300000, guid: 128dec4a1f657a148b2c9ee50c362e4d, type: 3}
    - time: 0.06666667
      value: {fileID: 21300000, guid: 8249534c25c1efb428981f5f236a5b04, type: 3}
    - time: 0.083333336
      value: {fileID: 21300000, guid: 3204608476afc38418a598d1c1b79b03, type: 3}
    - time: 0.1
      value: {fileID: 21300000, guid: 63eca2777fb0caa43a6f283b52ed3276, type: 3}
    - time: 0.11666667
      value: {fileID: 21300000, guid: 63eca2777fb0caa43a6f283b52ed3276, type: 3}
    - time: 0.13333334
      value: {fileID: 21300000, guid: 8881cde720d80e545b896c67ce99880f, type: 3}
    - time: 0.15
      value: {fileID: 21300000, guid: 2fd3948bcabbc6b4a8bd1a371bddf36c, type: 3}
    - time: 0.16666667
      value: {fileID: 21300000, guid: 4f1e539ba8d5b5d4790af3bb36b6d79c, type: 3}
    attribute: m_Sprite
    path: 
    classID: 212
    script: {fileID: 0}
  m_SampleRate: 60
  m_WrapMode: 0
  m_Bounds:
    m_Center: {x: 0, y: 0, z: 0}
    m_Extent: {x: 0, y: 0, z: 0}
  m_ClipBindingConstant:
    genericBindings:
    - serializedVersion: 2
      path: 0
      attribute: 0
      script: {fileID: 0}
      typeID: 212
      customType: 23
      isPPtrCurve: 1
    pptrCurveMapping:
    - {fileID: 21300000, guid: a886bcbb65b0c8e439e9f3d1c4f750df, type: 3}
    - {fileID: 21300000, guid: 0f135d62c19880343be7cf983ead4f84, type: 3}
    - {fileID: 21300000, guid: 92ddf3bd0f59acc40b66a1210ff81863, type: 3}
    - {fileID: 21300000, guid: 128dec4a1f657a148b2c9ee50c362e4d, type: 3}
    - {fileID: 21300000, guid: 8249534c25c1efb428981f5f236a5b04, type: 3}
    - {fileID: 21300000, guid: 3204608476afc38418a598d1c1b79b03, type: 3}
    - {fileID: 21300000, guid: 63eca2777fb0caa43a6f283b52ed3276, type: 3}
    - {fileID: 21300000, guid: 63eca2777fb0caa43a6f283b52ed3276, type: 3}
    - {fileID: 21300000, guid: 8881cde720d80e545b896c67ce99880f, type: 3}
    - {fileID: 21300000, guid: 2fd3948bcabbc6b4a8bd1a371bddf36c, type: 3}
    - {fileID: 21300000, guid: 4f1e539ba8d5b5d4790af3bb36b6d79c, type: 3}
  m_AnimationClipSettings:
    serializedVersion: 2
    m_AdditiveReferencePoseClip: {fileID: 0}
    m_AdditiveReferencePoseTime: 0
    m_StartTime: 0
    m_StopTime: 0.18333334
    m_OrientationOffsetY: 0
    m_Level: 0
    m_CycleOffset: 0
    m_HasAdditiveReferencePose: 0
    m_LoopTime: 1
    m_LoopBlend: 0
    m_LoopBlendOrientation: 0
    m_LoopBlendPositionY: 0
    m_LoopBlendPositionXZ: 0
    m_KeepOriginalOrientation: 0
    m_KeepOriginalPositionY: 1
    m_KeepOriginalPositionXZ: 0
    m_HeightFromFeet: 0
    m_Mirror: 0
  m_EditorCurves: []
  m_EulerEditorCurves: []
  m_HasGenericRootTransform: 0
  m_HasMotionFloatCurves: 0
  m_Events: []
